<svg xmlns="http://www.w3.org/2000/svg" xmlns:xlink="http://www.w3.org/1999/xlink" viewBox="0 0 7410 3900">
  <path fill="#b22234" d="M0 0h7410v3900H0z"/>
  <path d="M0 450h7410m0 600H0m0 600h7410m0 600H0m0 600h7410m0 600H0" stroke="#fff" stroke-width="300"/>
  <path fill="#3c3b6e" d="M0 0h2964v2100H0z"/>
  <g fill="#fff">
    <g id="us-d">
      <g id="us-c">
        <g id="us-e">
          <g id="us-b">
            <path id="us-a" d="M247 90l70.53423 217.08204-184.661012-134.16408h228.253564L176.46577 307.08204z"/>
            <use xlink:href="#us-a" y="420"/>
            <use xlink:href="#us-a" y="840"/>
            <use xlink:href="#us-a" y="1260"/>
          </g>
          <use xlink:href="#us-a" y="1680"/>
        </g>
        <use xlink:href="#us-b" x="247" y="210"/>
      </g>
      <use xlink:href="#us-c" x="494"/>
    </g>
    <use xlink:href="#us-d" x="988"/>
    <use xlink:href="#us-c" x="1976"/>
    <use xlink:href="#us-e" x="2470"/>
  </g>
</svg>